{
  "page": 1,
  "total_pages": 413,
  "total_results": 8246,
  "results": [
    {
      "adult": false,
      "backdrop_path": "/fQq1FWp1rC89xDrRMuyFJdFUdMd.jpg",
      "genre_ids": [
        10749,
        35
      ],
      "id": 761053,
      "original_language": "en",
      "original_title": "Gabriel's Inferno Part III",
      "overview": "The final part of the film adaption of the erotic romance novel Gabriel's Inferno written by an anonymous Canadian author under the pen name Sylvain Reynard.",
      "popularity": 37.144,
      "poster_path": "/fYtHxTxlhzD4QWfEbrC1rypysSD.jpg",
      "release_date": "2020-11-19",
      "title": "Gabriel's Inferno Part III",
      "video": false,
      "vote_average": 9.1,
      "vote_count": 598
    }
  ]
}